info face="Pixel Musketeer" size=14 bold=0 italic=0 charset="" unicode=0 stretchH=100 smooth=1 aa=1 padding=0,0,0,0 spacing=0,0
common lineHeight=17 base=14 scaleW=512 scaleH=512 pages=1 packed=0
page id=0 file="sagas-14.png"
chars count=95
char id=32   x=0     y=0     width=0     height=0     xoffset=0     yoffset=14    xadvance=7     page=0  chnl=0 
char id=124   x=0     y=0     width=4     height=15     xoffset=0     yoffset=3    xadvance=3     page=0  chnl=0 
char id=106   x=4     y=0     width=4     height=14     xoffset=0     yoffset=4    xadvance=3     page=0  chnl=0 
char id=57   x=8     y=0     width=9     height=13     xoffset=0     yoffset=4    xadvance=8     page=0  chnl=0 
char id=53   x=17     y=0     width=9     height=13     xoffset=0     yoffset=4    xadvance=8     page=0  chnl=0 
char id=52   x=26     y=0     width=9     height=13     xoffset=0     yoffset=4    xadvance=8     page=0  chnl=0 
char id=51   x=35     y=0     width=8     height=13     xoffset=0     yoffset=4    xadvance=7     page=0  chnl=0 
char id=74   x=43     y=0     width=5     height=13     xoffset=0     yoffset=4    xadvance=4     page=0  chnl=0 
char id=127   x=48     y=0     width=12     height=12     xoffset=0     yoffset=3    xadvance=11     page=0  chnl=0 
char id=121   x=60     y=0     width=9     height=12     xoffset=0     yoffset=6    xadvance=8     page=0  chnl=0 
char id=113   x=69     y=0     width=9     height=12     xoffset=0     yoffset=6    xadvance=8     page=0  chnl=0 
char id=112   x=78     y=0     width=9     height=12     xoffset=0     yoffset=6    xadvance=8     page=0  chnl=0 
char id=103   x=87     y=0     width=9     height=12     xoffset=0     yoffset=6    xadvance=8     page=0  chnl=0 
char id=38   x=96     y=0     width=9     height=11     xoffset=0     yoffset=4    xadvance=8     page=0  chnl=0 
char id=37   x=105     y=0     width=9     height=11     xoffset=0     yoffset=4    xadvance=8     page=0  chnl=0 
char id=36   x=114     y=0     width=9     height=11     xoffset=0     yoffset=4    xadvance=8     page=0  chnl=0 
char id=92   x=123     y=0     width=9     height=11     xoffset=0     yoffset=4    xadvance=8     page=0  chnl=0 
char id=64   x=132     y=0     width=9     height=11     xoffset=0     yoffset=4    xadvance=8     page=0  chnl=0 
char id=47   x=141     y=0     width=9     height=11     xoffset=0     yoffset=4    xadvance=8     page=0  chnl=0 
char id=93   x=150     y=0     width=6     height=11     xoffset=0     yoffset=4    xadvance=5     page=0  chnl=0 
char id=91   x=156     y=0     width=6     height=11     xoffset=0     yoffset=4    xadvance=5     page=0  chnl=0 
char id=41   x=162     y=0     width=6     height=11     xoffset=0     yoffset=4    xadvance=5     page=0  chnl=0 
char id=40   x=168     y=0     width=6     height=11     xoffset=0     yoffset=4    xadvance=5     page=0  chnl=0 
char id=63   x=174     y=0     width=8     height=11     xoffset=0     yoffset=4    xadvance=7     page=0  chnl=0 
char id=33   x=182     y=0     width=4     height=11     xoffset=0     yoffset=4    xadvance=3     page=0  chnl=0 
char id=48   x=186     y=0     width=9     height=11     xoffset=0     yoffset=4    xadvance=8     page=0  chnl=0 
char id=56   x=195     y=0     width=9     height=11     xoffset=0     yoffset=4    xadvance=8     page=0  chnl=0 
char id=55   x=204     y=0     width=9     height=11     xoffset=0     yoffset=4    xadvance=8     page=0  chnl=0 
char id=54   x=213     y=0     width=9     height=11     xoffset=0     yoffset=4    xadvance=8     page=0  chnl=0 
char id=50   x=222     y=0     width=8     height=11     xoffset=0     yoffset=4    xadvance=7     page=0  chnl=0 
char id=49   x=230     y=0     width=5     height=11     xoffset=0     yoffset=4    xadvance=4     page=0  chnl=0 
char id=116   x=235     y=0     width=6     height=11     xoffset=0     yoffset=4    xadvance=5     page=0  chnl=0 
char id=108   x=241     y=0     width=5     height=11     xoffset=0     yoffset=4    xadvance=4     page=0  chnl=0 
char id=107   x=246     y=0     width=9     height=11     xoffset=0     yoffset=4    xadvance=8     page=0  chnl=0 
char id=105   x=255     y=0     width=5     height=11     xoffset=0     yoffset=4    xadvance=4     page=0  chnl=0 
char id=104   x=260     y=0     width=9     height=11     xoffset=0     yoffset=4    xadvance=8     page=0  chnl=0 
char id=102   x=269     y=0     width=7     height=11     xoffset=0     yoffset=4    xadvance=6     page=0  chnl=0 
char id=100   x=276     y=0     width=9     height=11     xoffset=0     yoffset=4    xadvance=8     page=0  chnl=0 
char id=98   x=285     y=0     width=8     height=11     xoffset=0     yoffset=4    xadvance=7     page=0  chnl=0 
char id=90   x=293     y=0     width=9     height=11     xoffset=0     yoffset=4    xadvance=8     page=0  chnl=0 
char id=89   x=302     y=0     width=9     height=11     xoffset=0     yoffset=4    xadvance=8     page=0  chnl=0 
char id=88   x=311     y=0     width=9     height=11     xoffset=0     yoffset=4    xadvance=8     page=0  chnl=0 
char id=87   x=320     y=0     width=9     height=11     xoffset=0     yoffset=4    xadvance=8     page=0  chnl=0 
char id=86   x=329     y=0     width=9     height=11     xoffset=0     yoffset=4    xadvance=8     page=0  chnl=0 
char id=85   x=338     y=0     width=9     height=11     xoffset=0     yoffset=4    xadvance=8     page=0  chnl=0 
char id=84   x=347     y=0     width=7     height=11     xoffset=0     yoffset=4    xadvance=7     page=0  chnl=0 
char id=83   x=354     y=0     width=9     height=11     xoffset=0     yoffset=4    xadvance=8     page=0  chnl=0 
char id=82   x=363     y=0     width=9     height=11     xoffset=0     yoffset=4    xadvance=8     page=0  chnl=0 
char id=81   x=372     y=0     width=9     height=11     xoffset=0     yoffset=4    xadvance=8     page=0  chnl=0 
char id=80   x=381     y=0     width=9     height=11     xoffset=0     yoffset=4    xadvance=8     page=0  chnl=0 
char id=79   x=390     y=0     width=9     height=11     xoffset=0     yoffset=4    xadvance=8     page=0  chnl=0 
char id=78   x=399     y=0     width=9     height=11     xoffset=0     yoffset=4    xadvance=8     page=0  chnl=0 
char id=77   x=408     y=0     width=9     height=11     xoffset=0     yoffset=4    xadvance=8     page=0  chnl=0 
char id=76   x=417     y=0     width=8     height=11     xoffset=0     yoffset=4    xadvance=7     page=0  chnl=0 
char id=75   x=425     y=0     width=9     height=11     xoffset=0     yoffset=4    xadvance=8     page=0  chnl=0 
char id=73   x=434     y=0     width=5     height=11     xoffset=0     yoffset=4    xadvance=4     page=0  chnl=0 
char id=72   x=439     y=0     width=9     height=11     xoffset=0     yoffset=4    xadvance=8     page=0  chnl=0 
char id=71   x=448     y=0     width=9     height=11     xoffset=0     yoffset=4    xadvance=8     page=0  chnl=0 
char id=70   x=457     y=0     width=9     height=11     xoffset=0     yoffset=4    xadvance=8     page=0  chnl=0 
char id=69   x=466     y=0     width=9     height=11     xoffset=0     yoffset=4    xadvance=8     page=0  chnl=0 
char id=68   x=475     y=0     width=9     height=11     xoffset=0     yoffset=4    xadvance=8     page=0  chnl=0 
char id=67   x=484     y=0     width=9     height=11     xoffset=0     yoffset=4    xadvance=8     page=0  chnl=0 
char id=66   x=493     y=0     width=9     height=11     xoffset=0     yoffset=4    xadvance=8     page=0  chnl=0 
char id=65   x=502     y=0     width=9     height=11     xoffset=0     yoffset=4    xadvance=8     page=0  chnl=0 
char id=42   x=0     y=15     width=9     height=10     xoffset=0     yoffset=4    xadvance=8     page=0  chnl=0 
char id=59   x=9     y=15     width=5     height=10     xoffset=0     yoffset=7    xadvance=4     page=0  chnl=0 
char id=35   x=14     y=15     width=8     height=9     xoffset=0     yoffset=5    xadvance=7     page=0  chnl=0 
char id=62   x=22     y=15     width=6     height=9     xoffset=0     yoffset=5    xadvance=5     page=0  chnl=0 
char id=60   x=28     y=15     width=6     height=9     xoffset=0     yoffset=5    xadvance=5     page=0  chnl=0 
char id=125   x=34     y=15     width=6     height=9     xoffset=0     yoffset=6    xadvance=5     page=0  chnl=0 
char id=123   x=40     y=15     width=6     height=9     xoffset=0     yoffset=4    xadvance=5     page=0  chnl=0 
char id=122   x=46     y=15     width=8     height=9     xoffset=0     yoffset=6    xadvance=7     page=0  chnl=0 
char id=120   x=54     y=15     width=9     height=9     xoffset=0     yoffset=6    xadvance=8     page=0  chnl=0 
char id=119   x=63     y=15     width=9     height=9     xoffset=0     yoffset=6    xadvance=8     page=0  chnl=0 
char id=118   x=72     y=15     width=9     height=9     xoffset=0     yoffset=6    xadvance=8     page=0  chnl=0 
char id=117   x=81     y=15     width=9     height=9     xoffset=0     yoffset=6    xadvance=8     page=0  chnl=0 
char id=115   x=90     y=15     width=8     height=9     xoffset=0     yoffset=6    xadvance=7     page=0  chnl=0 
char id=114   x=98     y=15     width=9     height=9     xoffset=0     yoffset=6    xadvance=8     page=0  chnl=0 
char id=111   x=107     y=15     width=9     height=9     xoffset=0     yoffset=6    xadvance=8     page=0  chnl=0 
char id=110   x=116     y=15     width=9     height=9     xoffset=0     yoffset=6    xadvance=8     page=0  chnl=0 
char id=109   x=125     y=15     width=9     height=9     xoffset=0     yoffset=6    xadvance=8     page=0  chnl=0 
char id=101   x=134     y=15     width=8     height=9     xoffset=0     yoffset=6    xadvance=7     page=0  chnl=0 
char id=99   x=142     y=15     width=8     height=9     xoffset=0     yoffset=6    xadvance=7     page=0  chnl=0 
char id=97   x=150     y=15     width=9     height=9     xoffset=0     yoffset=6    xadvance=8     page=0  chnl=0 
char id=58   x=159     y=15     width=4     height=8     xoffset=0     yoffset=7    xadvance=3     page=0  chnl=0 
char id=43   x=163     y=15     width=8     height=7     xoffset=0     yoffset=6    xadvance=7     page=0  chnl=0 
char id=44   x=171     y=15     width=5     height=6     xoffset=0     yoffset=11    xadvance=4     page=0  chnl=0 
char id=126   x=176     y=15     width=7     height=5     xoffset=0     yoffset=0    xadvance=6     page=0  chnl=0 
char id=61   x=183     y=15     width=8     height=5     xoffset=0     yoffset=7    xadvance=7     page=0  chnl=0 
char id=94   x=191     y=15     width=7     height=5     xoffset=0     yoffset=0    xadvance=6     page=0  chnl=0 
char id=39   x=198     y=15     width=5     height=5     xoffset=0     yoffset=4    xadvance=4     page=0  chnl=0 
char id=96   x=203     y=15     width=7     height=5     xoffset=0     yoffset=0    xadvance=6     page=0  chnl=0 
char id=34   x=210     y=15     width=9     height=5     xoffset=0     yoffset=4    xadvance=8     page=0  chnl=0 
char id=46   x=219     y=15     width=4     height=4     xoffset=0     yoffset=11    xadvance=3     page=0  chnl=0 
char id=95   x=223     y=15     width=9     height=3     xoffset=0     yoffset=15    xadvance=8     page=0  chnl=0 
char id=45   x=232     y=15     width=8     height=3     xoffset=0     yoffset=8    xadvance=7     page=0  chnl=0 
kernings count=-1
