info face="Pixel Musketeer" size=10 bold=0 italic=0 charset="" unicode=0 stretchH=100 smooth=1 aa=1 padding=0,0,0,0 spacing=0,0
common lineHeight=12 base=10 scaleW=512 scaleH=512 pages=1 packed=0
page id=0 file="sagas_10.png"
chars count=95
char id=32   x=0     y=0     width=0     height=0     xoffset=0     yoffset=10    xadvance=5     page=0  chnl=0 
char id=124   x=0     y=0     width=3     height=11     xoffset=0     yoffset=2    xadvance=2     page=0  chnl=0 
char id=106   x=3     y=0     width=3     height=10     xoffset=0     yoffset=3    xadvance=2     page=0  chnl=0 
char id=127   x=6     y=0     width=9     height=9     xoffset=0     yoffset=2    xadvance=8     page=0  chnl=0 
char id=57   x=15     y=0     width=7     height=9     xoffset=0     yoffset=3    xadvance=6     page=0  chnl=0 
char id=53   x=22     y=0     width=7     height=9     xoffset=0     yoffset=3    xadvance=6     page=0  chnl=0 
char id=52   x=29     y=0     width=7     height=9     xoffset=0     yoffset=3    xadvance=6     page=0  chnl=0 
char id=51   x=36     y=0     width=6     height=9     xoffset=0     yoffset=3    xadvance=5     page=0  chnl=0 
char id=121   x=42     y=0     width=7     height=9     xoffset=0     yoffset=4    xadvance=6     page=0  chnl=0 
char id=113   x=49     y=0     width=7     height=9     xoffset=0     yoffset=4    xadvance=6     page=0  chnl=0 
char id=112   x=56     y=0     width=7     height=9     xoffset=0     yoffset=4    xadvance=6     page=0  chnl=0 
char id=103   x=63     y=0     width=7     height=9     xoffset=0     yoffset=4    xadvance=6     page=0  chnl=0 
char id=74   x=70     y=0     width=4     height=9     xoffset=0     yoffset=3    xadvance=3     page=0  chnl=0 
char id=42   x=74     y=0     width=7     height=8     xoffset=0     yoffset=3    xadvance=6     page=0  chnl=0 
char id=38   x=81     y=0     width=7     height=8     xoffset=0     yoffset=3    xadvance=6     page=0  chnl=0 
char id=37   x=88     y=0     width=7     height=8     xoffset=0     yoffset=3    xadvance=6     page=0  chnl=0 
char id=36   x=95     y=0     width=7     height=8     xoffset=0     yoffset=3    xadvance=6     page=0  chnl=0 
char id=92   x=102     y=0     width=7     height=8     xoffset=0     yoffset=3    xadvance=6     page=0  chnl=0 
char id=64   x=109     y=0     width=7     height=8     xoffset=0     yoffset=3    xadvance=6     page=0  chnl=0 
char id=47   x=116     y=0     width=7     height=8     xoffset=0     yoffset=3    xadvance=6     page=0  chnl=0 
char id=93   x=123     y=0     width=4     height=8     xoffset=0     yoffset=3    xadvance=4     page=0  chnl=0 
char id=91   x=127     y=0     width=4     height=8     xoffset=0     yoffset=3    xadvance=4     page=0  chnl=0 
char id=41   x=131     y=0     width=4     height=8     xoffset=0     yoffset=3    xadvance=4     page=0  chnl=0 
char id=40   x=135     y=0     width=4     height=8     xoffset=0     yoffset=3    xadvance=4     page=0  chnl=0 
char id=63   x=139     y=0     width=6     height=8     xoffset=0     yoffset=3    xadvance=5     page=0  chnl=0 
char id=33   x=145     y=0     width=3     height=8     xoffset=0     yoffset=3    xadvance=2     page=0  chnl=0 
char id=48   x=148     y=0     width=7     height=8     xoffset=0     yoffset=3    xadvance=6     page=0  chnl=0 
char id=56   x=155     y=0     width=7     height=8     xoffset=0     yoffset=3    xadvance=6     page=0  chnl=0 
char id=55   x=162     y=0     width=7     height=8     xoffset=0     yoffset=3    xadvance=6     page=0  chnl=0 
char id=54   x=169     y=0     width=7     height=8     xoffset=0     yoffset=3    xadvance=6     page=0  chnl=0 
char id=50   x=176     y=0     width=6     height=8     xoffset=0     yoffset=3    xadvance=5     page=0  chnl=0 
char id=49   x=182     y=0     width=4     height=8     xoffset=0     yoffset=3    xadvance=3     page=0  chnl=0 
char id=116   x=186     y=0     width=4     height=8     xoffset=0     yoffset=3    xadvance=4     page=0  chnl=0 
char id=108   x=190     y=0     width=4     height=8     xoffset=0     yoffset=3    xadvance=3     page=0  chnl=0 
char id=107   x=194     y=0     width=7     height=8     xoffset=0     yoffset=3    xadvance=6     page=0  chnl=0 
char id=105   x=201     y=0     width=4     height=8     xoffset=0     yoffset=3    xadvance=3     page=0  chnl=0 
char id=104   x=205     y=0     width=7     height=8     xoffset=0     yoffset=3    xadvance=6     page=0  chnl=0 
char id=102   x=212     y=0     width=5     height=8     xoffset=0     yoffset=3    xadvance=4     page=0  chnl=0 
char id=100   x=217     y=0     width=7     height=8     xoffset=0     yoffset=3    xadvance=6     page=0  chnl=0 
char id=98   x=224     y=0     width=6     height=8     xoffset=0     yoffset=3    xadvance=5     page=0  chnl=0 
char id=90   x=230     y=0     width=7     height=8     xoffset=0     yoffset=3    xadvance=6     page=0  chnl=0 
char id=89   x=237     y=0     width=7     height=8     xoffset=0     yoffset=3    xadvance=6     page=0  chnl=0 
char id=88   x=244     y=0     width=7     height=8     xoffset=0     yoffset=3    xadvance=6     page=0  chnl=0 
char id=87   x=251     y=0     width=7     height=8     xoffset=0     yoffset=3    xadvance=6     page=0  chnl=0 
char id=86   x=258     y=0     width=7     height=8     xoffset=0     yoffset=3    xadvance=6     page=0  chnl=0 
char id=85   x=265     y=0     width=7     height=8     xoffset=0     yoffset=3    xadvance=6     page=0  chnl=0 
char id=84   x=272     y=0     width=6     height=8     xoffset=0     yoffset=3    xadvance=5     page=0  chnl=0 
char id=83   x=278     y=0     width=7     height=8     xoffset=0     yoffset=3    xadvance=6     page=0  chnl=0 
char id=82   x=285     y=0     width=7     height=8     xoffset=0     yoffset=3    xadvance=6     page=0  chnl=0 
char id=81   x=292     y=0     width=7     height=8     xoffset=0     yoffset=3    xadvance=6     page=0  chnl=0 
char id=80   x=299     y=0     width=7     height=8     xoffset=0     yoffset=3    xadvance=6     page=0  chnl=0 
char id=79   x=306     y=0     width=7     height=8     xoffset=0     yoffset=3    xadvance=6     page=0  chnl=0 
char id=78   x=313     y=0     width=7     height=8     xoffset=0     yoffset=3    xadvance=6     page=0  chnl=0 
char id=77   x=320     y=0     width=7     height=8     xoffset=0     yoffset=3    xadvance=6     page=0  chnl=0 
char id=76   x=327     y=0     width=6     height=8     xoffset=0     yoffset=3    xadvance=5     page=0  chnl=0 
char id=75   x=333     y=0     width=7     height=8     xoffset=0     yoffset=3    xadvance=6     page=0  chnl=0 
char id=73   x=340     y=0     width=4     height=8     xoffset=0     yoffset=3    xadvance=3     page=0  chnl=0 
char id=72   x=344     y=0     width=7     height=8     xoffset=0     yoffset=3    xadvance=6     page=0  chnl=0 
char id=71   x=351     y=0     width=7     height=8     xoffset=0     yoffset=3    xadvance=5     page=0  chnl=0 
char id=70   x=358     y=0     width=7     height=8     xoffset=0     yoffset=3    xadvance=6     page=0  chnl=0 
char id=69   x=365     y=0     width=7     height=8     xoffset=0     yoffset=3    xadvance=6     page=0  chnl=0 
char id=68   x=372     y=0     width=7     height=8     xoffset=0     yoffset=3    xadvance=6     page=0  chnl=0 
char id=67   x=379     y=0     width=7     height=8     xoffset=0     yoffset=3    xadvance=6     page=0  chnl=0 
char id=66   x=386     y=0     width=7     height=8     xoffset=0     yoffset=3    xadvance=6     page=0  chnl=0 
char id=65   x=393     y=0     width=7     height=8     xoffset=0     yoffset=3    xadvance=6     page=0  chnl=0 
char id=35   x=400     y=0     width=6     height=7     xoffset=0     yoffset=4    xadvance=5     page=0  chnl=0 
char id=62   x=406     y=0     width=4     height=7     xoffset=0     yoffset=4    xadvance=4     page=0  chnl=0 
char id=60   x=410     y=0     width=4     height=7     xoffset=0     yoffset=4    xadvance=4     page=0  chnl=0 
char id=125   x=414     y=0     width=4     height=7     xoffset=0     yoffset=4    xadvance=4     page=0  chnl=0 
char id=123   x=418     y=0     width=4     height=7     xoffset=0     yoffset=3    xadvance=4     page=0  chnl=0 
char id=59   x=422     y=0     width=4     height=7     xoffset=0     yoffset=5    xadvance=3     page=0  chnl=0 
char id=122   x=426     y=0     width=6     height=7     xoffset=0     yoffset=4    xadvance=5     page=0  chnl=0 
char id=120   x=432     y=0     width=7     height=7     xoffset=0     yoffset=4    xadvance=6     page=0  chnl=0 
char id=119   x=439     y=0     width=7     height=7     xoffset=0     yoffset=4    xadvance=6     page=0  chnl=0 
char id=118   x=446     y=0     width=7     height=7     xoffset=0     yoffset=4    xadvance=6     page=0  chnl=0 
char id=117   x=453     y=0     width=7     height=7     xoffset=0     yoffset=4    xadvance=6     page=0  chnl=0 
char id=115   x=460     y=0     width=6     height=7     xoffset=0     yoffset=4    xadvance=5     page=0  chnl=0 
char id=114   x=466     y=0     width=7     height=7     xoffset=0     yoffset=4    xadvance=6     page=0  chnl=0 
char id=111   x=473     y=0     width=7     height=7     xoffset=0     yoffset=4    xadvance=6     page=0  chnl=0 
char id=110   x=480     y=0     width=7     height=7     xoffset=0     yoffset=4    xadvance=6     page=0  chnl=0 
char id=109   x=487     y=0     width=7     height=7     xoffset=0     yoffset=4    xadvance=6     page=0  chnl=0 
char id=101   x=494     y=0     width=6     height=7     xoffset=0     yoffset=4    xadvance=5     page=0  chnl=0 
char id=99   x=500     y=0     width=6     height=7     xoffset=0     yoffset=4    xadvance=5     page=0  chnl=0 
char id=97   x=0     y=11     width=7     height=7     xoffset=0     yoffset=4    xadvance=6     page=0  chnl=0 
char id=43   x=7     y=11     width=6     height=6     xoffset=0     yoffset=4    xadvance=5     page=0  chnl=0 
char id=58   x=13     y=11     width=3     height=6     xoffset=0     yoffset=5    xadvance=2     page=0  chnl=0 
char id=126   x=16     y=11     width=5     height=4     xoffset=0     yoffset=0    xadvance=4     page=0  chnl=0 
char id=61   x=21     y=11     width=6     height=4     xoffset=0     yoffset=5    xadvance=5     page=0  chnl=0 
char id=94   x=27     y=11     width=5     height=4     xoffset=0     yoffset=0    xadvance=4     page=0  chnl=0 
char id=44   x=32     y=11     width=4     height=4     xoffset=0     yoffset=8    xadvance=3     page=0  chnl=0 
char id=39   x=36     y=11     width=4     height=4     xoffset=0     yoffset=3    xadvance=3     page=0  chnl=0 
char id=96   x=40     y=11     width=5     height=4     xoffset=0     yoffset=0    xadvance=4     page=0  chnl=0 
char id=34   x=45     y=11     width=7     height=4     xoffset=0     yoffset=3    xadvance=6     page=0  chnl=0 
char id=95   x=52     y=11     width=7     height=3     xoffset=0     yoffset=10    xadvance=6     page=0  chnl=0 
char id=45   x=59     y=11     width=6     height=3     xoffset=0     yoffset=6    xadvance=5     page=0  chnl=0 
char id=46   x=65     y=11     width=3     height=3     xoffset=0     yoffset=8    xadvance=2     page=0  chnl=0 
kernings count=-1
